Country	Minute	Hour	Logged CAD Users	Operations in Execution	Active CAD Users	FCS CPU	CAD Connect	CAD Search	CAD Explore	CAD Apply Filter	CAD 3D Search	CAD Select	CAD Validate	CAD Open	CAD Update	Logged VIS Users	Operations in Execution	Active VIS Users	VIS Connect	VIS Search	VIS Explore	VIS Apply Filter	VIS 3D Search	VIS Select	VIS Validate	VIS Open	VIS Update
Brazil	915	15.25	141.9333333333	11.8	46.838	0.00%	3.8534833	1.2387	11.1964832	1.2649333	22.204952	13.68655	26.0299068	67.5749142	77.377709	256.3333333333	15.6	84.59	3.8527666	1.2379666	11.2069415	1.264	22.2032202	13.6831394	26.0223173	67.5749142	22.0191833
Brazil	930	15.5	142.3333333333	11.8666666667	46.97	0.00%	3.85485	1.2402333	11.1985999	1.2683666	22.20514	13.6832166	26.0296672	67.56475	77.37115	257.3333333333	15.6666666667	84.92	3.856175	1.2388875	11.2039915	1.2648833	22.2048316	13.6832666	26.0213942	67.56475	22.0284711
Brazil	945	15.75	143.0666666667	11.3333333333	47.212	0.00%	3.8631666	1.2395833	11.1993499	1.26815	22.2050416	13.6874666	26.0370333	67.6016666	77.4221	258.4	15.6	85.272	3.8538916	1.2391722	11.2043915	1.2649416	22.2058233	13.6842379	26.0348416	67.6016666	22.0278016
Brazil	960	16	142.5333333333	11.6	47.036	0.00%	3.8529333	1.2451	11.1983832	1.2640666	22.2187451	13.6929833	26.0331237	67.6784	77.4343666	258.4666666667	16.4666666667	85.294	3.8578666	1.2391208	11.203736	1.2687333	22.2140197	13.6840701	26.0336173	67.6784	22.0398557
Brazil	975	16.25	140.7333333333	11.2	46.442	0.00%	3.85215	1.2371333	11.1999499	1.2636	22.2032029	13.6837559	26.0247833	67.5806833	77.3501344	272.7333333333	16.5333333333	90.002	3.8502834	1.2392273	11.1947592	1.2643937	22.2038598	13.6840369	26.0218732	67.5806833	22.0178825
Brazil	990	16.5	140.8	11.3333333333	46.464	0.00%	3.8517	1.2367666	11.1941999	1.2629	22.2034566	13.6825311	26.0264333	67.5520852	77.3431833	272.4	16.2	89.892	3.8510846	1.2393012	11.1945306	1.2627615	22.2030361	13.6837768	26.0179932	67.5520852	22.0157572
Brazil	1005	16.75	140.5333333333	10	46.376	0.00%	3.8494333	1.2385666	11.1936165	1.26285	22.2033357	13.68225	26.0211426	67.5809796	77.3583833	271.9333333333	15.8	89.738	3.8529921	1.2390543	11.198392	1.2636535	22.203834	13.6837074	26.0207564	67.5809796	22.0190897
