Country	Minute	Hour	Logged CAD Users	Operations in Execution	Active CAD Users	FCS CPU	CAD Connect	CAD Search	CAD Explore	CAD Apply Filter	CAD 3D Search	CAD Select	CAD Validate	CAD Open	CAD Update	Logged VIS Users	Operations in Execution	Active VIS Users	VIS Connect	VIS Search	VIS Explore	VIS Apply Filter	VIS 3D Search	VIS Select	VIS Validate	VIS Open	VIS Update
India 	915	15.25	35.2	3.0666666667	11.616	0.00%	5.833	2.229	19.1328665	2.2548666	35.0988566	18.146	28.0063666	70.5638428	80.3926285	28.6666666667	0	9.46	0	0	0	0	0	0	0	70.5638428	0
India 	930	15.5	36	2.6	11.88	0.00%	5.8393333	2.23	19.1326665	2.2546666	35.0991614	18.1460666	27.9989666	70.5808666	80.355	28.8666666667	0	9.526	0	0	0	0	0	0	0	70.5808666	0
India 	945	15.75	36.6666666667	3.0666666667	12.1	0.00%	5.8341333	2.2286666	19.1317332	2.2564	35.1038566	18.149	28.0297	70.5744	80.3598	29.3333333333	0	9.68	0	0	0	0	0	0	0	70.5744	0
India 	960	16	35.2666666667	2.6	11.638	0.00%	5.8352666	2.2306	19.1409999	2.2559333	35.1052775	18.1466666	28.0227666	70.6075333	80.3923333	28.8666666667	0	9.526	0	0	0	0	0	0	0	70.6075333	0
India 	975	16.25	29.0666666667	1.2	9.592	0.00%	5.8328333	2.2318333	19.1313999	2.258	35.1047566	18.1469	28.0269	70.6040333	80.3418666	27.6666666667	0	9.13	0	0	0	0	0	0	0	70.6040333	0
India 	990	16.5	28.8	1.5333333333	9.504	0.00%	5.83225	2.2295	19.1343999	2.25475	35.098715	18.14615	28.0059222	70.5149777	80.3246444	27.6666666667	0	9.13	0	0	0	0	0	0	0	70.5149777	0
India 	1005	16.75	28.4666666667	1.0666666667	9.394	0.00%	5.8351666	2.2286666	19.1303999	2.2553333	35.14539	18.1455666	28.0090333	70.5368	80.454	27.5333333333	0	9.086	0	0	0	0	0	0	0	70.5368	0
