dcid	Country	Minute	Hour	Logged CAD Users	Operations in Execution	Active CAD Users	FCS CPU	CAD Connect	CAD Search	CAD Explore	CAD Apply Filter	CAD 3D Search	CAD Select	CAD Validate	CAD Open	CAD Update	Logged VIS Users	Operations in Execution	Active VIS Users	VIS Connect	VIS Search	VIS Explore	VIS Apply Filter	VIS 3D Search	VIS Select	VIS Validate	VIS Open	VIS Update
1	USA	915	15.25	1120.3333333333	105.2666666667	369.71	0.00%	1.6445854	0.13408	2.3694435	0.1592636	7.8527177	8.7160844	23.8202859	64.2740463	74.0567343	826	50.1333333333	272.58	1.6446	0.133605	2.3656199	0.1596775	7.8520221	8.7160574	23.8152231	64.2740463	18.7082741
1	USA	930	15.5	1115.4666666667	106.9333333333	368.104	0.00%	1.6465477	0.1338161	2.3650407	0.1594944	7.85359	8.7161205	23.823891	64.2786375	74.0740547	836.5333333333	53.5333333333	276.056	1.6466658	0.1337695	2.3668752	0.1612825	7.8540912	8.7161845	23.8260832	64.2786375	18.7123418
1	USA	945	15.75	1114.0666666667	107.2	367.642	0.00%	1.6493805	0.1360863	2.3683907	0.1602481	7.8538473	8.7165633	23.824667	64.2992091	74.0967793	848.8	52.0666666667	280.104	1.6497669	0.1349155	2.3717049	0.1601723	7.8535657	8.7163069	23.8278582	64.2992091	18.7162218
1	USA	960	16	1118.0666666667	107.9333333333	368.962	0.00%	1.6455669	0.1365431	2.374257	0.1597614	7.8580542	8.7167726	23.8286136	64.3204615	74.1130321	843.8	51.2	278.454	1.6460465	0.1350676	2.3719611	0.1604558	7.8559052	8.7167563	23.829607	64.3204615	18.7204469
1	USA	975	16.25	1120.0666666667	108.8	369.622	0.00%	1.6429725	0.1339488	2.3649603	0.1593583	7.8528828	8.7154456	23.8123502	64.2628	74.0458405	908	55.4	299.64	1.6420045	0.1346735	2.3649612	0.159907	7.8521659	8.7166863	23.810755	64.2628	18.7046477
1	USA	990	16.5	1119.3333333333	105.3333333333	369.38	0.00%	1.6440183	0.1333731	2.3625469	0.1589705	7.8518833	8.7151281	23.8108963	64.2467295	74.0384601	907.4666666667	56.2666666667	299.464	1.6434696	0.1345021	2.3621706	0.1591123	7.8520396	8.7163948	23.8110144	64.2467295	18.7031864
1	USA	1005	16.75	1116.8	104.2	368.544	0.00%	1.6422283	0.1330165	2.3641039	0.1590092	7.8525481	8.7166232	23.8114012	64.2616595	74.0498873	905.9333333333	54.2	298.958	1.6426009	0.1342843	2.3624677	0.158916	7.8520013	8.7163535	23.8111352	64.2616595	18.7014663
2	England 	915	15.25	35.2	3.0666666667	11.616	0.00%	3.1007333	0.8603333	8.1940665	0.9024666	17.3151233	11.9916666	25.2625	66.4466285	76.2767714	239	14.4666666667	78.87			8.1887538	0.8881858	17.3152802	11.992025	25.2839935	66.4466285	20.8915097
2	England 	930	15.5	36	3.1333333333	11.88	0.00%	3.0975333	0.8729333	8.1882665	0.8878666	17.3149233	11.9912	25.2895	66.4561333	76.2936285	247.4	14	81.642	3.1067844	0.8618253	8.1889257	0.8914568	17.3165373	11.9924218	25.2684226	66.4561333	20.8916649
2	England 	945	15.75	36.6666666667	3	12.1	0.00%	3.1040666	0.8837333	8.2063332	0.8869333	17.31479	11.9916666	25.3161	66.4490666	76.288325	257.1333333333	15.0666666667	84.854	3.1050932	0.8622766	8.191366	0.8880338	17.3176908	11.9930311	25.2933068	66.4490666	20.9081396
2	England 	960	16	35.2666666667	2.7333333333	11.638	0.00%	3.109	0.8622666	8.1863999	0.8884	17.31779	11.9940666	25.2641666	66.5491333	76.2506666	244.4	14.8	80.652	3.1045299	0.862403	8.2094426	0.8927094	17.3215476	11.9928437	25.2791873	66.5491333	20.92615
2	England 	975	16.25	29.0666666667	1.1333333333	9.592	0.00%	3.0975	0.8653333	8.1847332	0.8911666	17.3157566	11.9895666	25.3335	66.4643666	76.1947	181.0666666667	10.0666666667	59.752	3.0995432	0.862299	8.1894999	0.8880864	17.315815	11.9933504	25.2731074	66.4643666	20.8927
2	England 	990	16.5	28.8	1.5333333333	9.504	0.00%	3.0975	0.862375	8.1855249	0.887125	17.314215	11.990525	25.2622555	66.4264222	76.2017555	179.9333333333	9.7333333333	59.378	3.1013902	0.8621977	8.1867011	0.8876951	17.3152887	11.9929614	25.2664625	66.4264222	20.8848385
2	England 	1005	16.75	28.4666666667	1	9.394	0.00%	3.0971666	0.8611666	8.1865665	0.8871666	17.3149233	12.0044	25.2645333	66.3948	76.1934	177.6	10.0666666667	58.608	3.10165	0.8621357	8.187653	0.886575	17.317665	11.9927668	25.2678604	66.3948	20.8870125
3	Germany	915	15.25	161.8666666667	13.2	53.416	0.00%	3.4520704	1.0372816	9.5976252	1.0649577	19.6036885	12.7844845	25.6347869	66.9780939	76.7669575	500.6	31.1333333333	165.198	3.4521203	1.0375726	9.5987152	1.0645311	19.6054904	12.783775	25.6266914	66.9780939	21.4190776
3	Germany	930	15.5	174.0666666667	14.4	57.442	0.00%	3.4537435	1.0379743	9.5970665	1.065	19.6079276	12.7834384	25.63205	66.9962779	76.7727584	531.0666666667	35	175.252	3.4543228	1.0385636	9.599056	1.0652047	19.6068688	12.7834933	25.6365286	66.9962779	21.4235794
3	Germany	945	15.75	188.4	16.4666666667	62.172	0.00%	3.4574069	1.0386511	9.6057487	1.0642325	19.6045202	12.7850117	25.6277348	67.0137465	76.8081764	566.6666666667	35.6	187	3.4576787	1.0389417	9.601738	1.065249	19.6054481	12.7840827	25.6317359	67.0137465	21.424189
3	Germany	960	16	173.3333333333	15.5333333333	57.2	0.00%	3.452358	1.0382345	9.60119	1.0643827	19.6067525	12.7841317	25.6418125	67.0180192	76.8210536	529	34.2666666667	174.57	3.4541692	1.0390251	9.6126933	1.0664192	19.6107915	12.7847226	25.6349368	67.0180192	21.4405018
3	Germany	975	16.25	112.4666666667	8.8	37.114	0.00%	3.4535869	1.0414565	9.5983346	1.062826	19.6044623	12.7837333	25.6182227	66.9967869	76.7734391	371.5333333333	23.4666666667	122.606	3.4505657	1.0387183	9.599343	1.0634114	19.6050589	12.7847847	25.6219235	66.9967869	21.420279
3	Germany	990	16.5	112.0666666667	8.9333333333	36.982	0.00%	3.4514042	1.0378723	9.5939105	1.0632553	19.602965	12.7837125	25.619251	66.9523666	76.7386	370.1333333333	22.9333333333	122.144	3.4522685	1.0385991	9.5944976	1.0631428	19.6034242	12.7845209	25.6194055	66.9523666	21.4131828
3	Germany	1005	16.75	111	9.2	36.63	0.00%	3.4526734	1.0374489	9.5942162	1.0624489	19.6109441	12.7829208	25.6253734	66.968853	76.7790163	367.6	23.2	121.308	3.4508793	1.0385694	9.5931256	1.0627126	19.6035148	12.7843672	25.6186005	66.968853	21.4158149
4	India 	915	15.25	35.2	3.0666666667	11.616	0.00%	5.833	2.229	19.1328665	2.2548666	35.0988566	18.146	28.0063666	70.5638428	80.3926285	28.6666666667	0	9.46	0	0	0	0	0	0	0	70.5638428	0
4	India 	930	15.5	36	2.6	11.88	0.00%	5.8393333	2.23	19.1326665	2.2546666	35.0991614	18.1460666	27.9989666	70.5808666	80.355	28.8666666667	0	9.526	0	0	0	0	0	0	0	70.5808666	0
4	India 	945	15.75	36.6666666667	3.0666666667	12.1	0.00%	5.8341333	2.2286666	19.1317332	2.2564	35.1038566	18.149	28.0297	70.5744	80.3598	29.3333333333	0	9.68	0	0	0	0	0	0	0	70.5744	0
4	India 	960	16	35.2666666667	2.6	11.638	0.00%	5.8352666	2.2306	19.1409999	2.2559333	35.1052775	18.1466666	28.0227666	70.6075333	80.3923333	28.8666666667	0	9.526	0	0	0	0	0	0	0	70.6075333	0
4	India 	975	16.25	29.0666666667	1.2	9.592	0.00%	5.8328333	2.2318333	19.1313999	2.258	35.1047566	18.1469	28.0269	70.6040333	80.3418666	27.6666666667	0	9.13	0	0	0	0	0	0	0	70.6040333	0
4	India 	990	16.5	28.8	1.5333333333	9.504	0.00%	5.83225	2.2295	19.1343999	2.25475	35.098715	18.14615	28.0059222	70.5149777	80.3246444	27.6666666667	0	9.13	0	0	0	0	0	0	0	70.5149777	0
4	India 	1005	16.75	28.4666666667	1.0666666667	9.394	0.00%	5.8351666	2.2286666	19.1303999	2.2553333	35.14539	18.1455666	28.0090333	70.5368	80.454	27.5333333333	0	9.086	0	0	0	0	0	0	0	70.5368	0
5	Mexico	915	15.25	5	0	1.65	0.00%	0	0	0	0	0	0	0	0	0	11	0	3.63	0	0	0	0	0	0	0	0	0
5	Mexico	930	15.5	5	0	1.65	0.00%	0	0	0	0	0	0	0	0	0	11	0	3.63	0	0	0	0	0	0	0	0	0
5	Mexico	945	15.75	5	0	1.65	0.00%	0	0	0	0	0	0	0	0	0	11	0	3.63	0	0	0	0	0	0	0	0	0
5	Mexico	960	16	5.0666666667	0	1.672	0.00%	0	0	0	0	0	0	0	0	0	11	0	3.63	0	0	0	0	0	0	0	0	0
5	Mexico	975	16.25	6	0	1.98	0.00%	0	0	0	0	0	0	0	0	0	11	0	3.63	0	0	0	0	0	0	0	0	0
5	Mexico	990	16.5	6	0	1.98	0.00%	0	0	0	0	0	0	0	0	0	11	0	3.63	0	0	0	0	0	0	0	0	0
5	Mexico	1005	16.75	6	0	1.98	0.00%	0	0	0	0	0	0	0	0	0	11	0	3.63	0	0	0	0	0	0	0	0	0
6	Brazil	915	15.25	141.9333333333	11.8	46.838	0.00%	3.8534833	1.2387	11.1964832	1.2649333	22.204952	13.68655	26.0299068	67.5749142	77.377709	256.3333333333	15.6	84.59	3.8527666	1.2379666	11.2069415	1.264	22.2032202	13.6831394	26.0223173	67.5749142	22.0191833
6	Brazil	930	15.5	142.3333333333	11.8666666667	46.97	0.00%	3.85485	1.2402333	11.1985999	1.2683666	22.20514	13.6832166	26.0296672	67.56475	77.37115	257.3333333333	15.6666666667	84.92	3.856175	1.2388875	11.2039915	1.2648833	22.2048316	13.6832666	26.0213942	67.56475	22.0284711
6	Brazil	945	15.75	143.0666666667	11.3333333333	47.212	0.00%	3.8631666	1.2395833	11.1993499	1.26815	22.2050416	13.6874666	26.0370333	67.6016666	77.4221	258.4	15.6	85.272	3.8538916	1.2391722	11.2043915	1.2649416	22.2058233	13.6842379	26.0348416	67.6016666	22.0278016
6	Brazil	960	16	142.5333333333	11.6	47.036	0.00%	3.8529333	1.2451	11.1983832	1.2640666	22.2187451	13.6929833	26.0331237	67.6784	77.4343666	258.4666666667	16.4666666667	85.294	3.8578666	1.2391208	11.203736	1.2687333	22.2140197	13.6840701	26.0336173	67.6784	22.0398557
6	Brazil	975	16.25	140.7333333333	11.2	46.442	0.00%	3.85215	1.2371333	11.1999499	1.2636	22.2032029	13.6837559	26.0247833	67.5806833	77.3501344	272.7333333333	16.5333333333	90.002	3.8502834	1.2392273	11.1947592	1.2643937	22.2038598	13.6840369	26.0218732	67.5806833	22.0178825
6	Brazil	990	16.5	140.8	11.3333333333	46.464	0.00%	3.8517	1.2367666	11.1941999	1.2629	22.2034566	13.6825311	26.0264333	67.5520852	77.3431833	272.4	16.2	89.892	3.8510846	1.2393012	11.1945306	1.2627615	22.2030361	13.6837768	26.0179932	67.5520852	22.0157572
6	Brazil	1005	16.75	140.5333333333	10	46.376	0.00%	3.8494333	1.2385666	11.1936165	1.26285	22.2033357	13.68225	26.0211426	67.5809796	77.3583833	271.9333333333	15.8	89.738	3.8529921	1.2390543	11.198392	1.2636535	22.203834	13.6837074	26.0207564	67.5809796	22.0190897
7	China 	915	15.25	16	0	5.28	0.00%	0	0	0	0	0	0	0	0	0	24	0	7.92	0	0	0	0	0	0	0	0	0
7	China 	930	15.5	16	0	5.28	0.00%	0	0	0	0	0	0	0	0	0	24	0	7.92	0	0	0	0	0	0	0	0	0
7	China 	945	15.75	16	0	5.28	0.00%	0	0	0	0	0	0	0	0	0	24	0	7.92	0	0	0	0	0	0	0	0	0
7	China 	960	16	15.9333333333	0	5.258	0.00%	0	0	0	0	0	0	0	0	0	24	0	7.92	0	0	0	0	0	0	0	0	0
7	China 	975	16.25	15	0	4.95	0.00%	0	0	0	0	0	0	0	0	0	24	0	7.92	0	0	0	0	0	0	0	0	0
7	China 	990	16.5	15	0	4.95	0.00%	0	0	0	0	0	0	0	0	0	24	0	7.92	0	0	0	0	0	0	0	0	0
7	China 	1005	16.75	15	0	4.95	0.00%	0	0	0	0	0	0	0	0	0	24	0	7.92	0	0	0	0	0	0	0	0	0
8	Australia	915	15.25	44.2	2.7333333333	14.586	0.00%	7.8040666	3.2136666	27.0056856	3.2511333	47.9200566	22.5740666	29.9669	73.4711285	83.3092	73	3.8	24.09	7.8046333	3.2158	27.002193	3.2416	47.89349	22.5747333	29.9613666	73.4711285	27.9452344
8	Australia	930	15.5	45	2.9333333333	14.85	0.00%	7.8038666	3.2173333	27.0013374	3.2549333	47.8929233	22.5766666	29.9857	73.4948	83.2991333	73	4.4	24.09	7.8138333	3.2190666	27.0016902	3.2418	47.9038233	22.5752666	29.9669413	73.4948	27.9480333
8	Australia	945	15.75	45.6666666667	2.6	15.07	0.00%	7.8152666	3.214	27.0056665	3.2393333	47.8913757	22.5768666	29.9889142	73.5634666	83.3903875	73	3.7333333333	24.09	7.8075666	3.2179111	27.0065332	3.239	47.89599	22.5751555	30.018562	73.5634666	27.9510709
8	Australia	960	16	45.4666666667	2.5333333333	15.004	0.00%	7.8072666	3.2376666	27.1048665	3.2408	47.89134	22.575	30.0016333	73.5304	83.3044142	73	4.0666666667	24.09	7.8066333	3.2172333	27.0277999	3.2508	47.9097233	22.57515	29.9766677	73.5304	27.9839586
8	Australia	975	16.25	59.2666666667	3.8	19.558	0.00%	7.8012857	3.2154285	27.0166379	3.2385238	47.89159	22.5774476	29.9805636	73.48225	83.2970571	73	3.7333333333	24.09	7.8004666	3.21636	27.0012999	3.2401	47.8913233	22.5752533	29.9699333	73.48225	27.9520709
8	Australia	990	16.5	59	4.5333333333	19.47	0.00%	7.807125	3.2145833	27.0021082	3.239125	47.8908816	22.5739	29.9633086	73.49092	83.27908	73	4.0666666667	24.09	7.8045666	3.21665	27.0046665	3.2384333	47.8908566	22.5750666	29.9652666	73.49092	27.9417
8	Australia	1005	16.75	58.1333333333	4	19.184	0.00%	7.8008571	3.2128095	27.0074951	3.2398571	47.8933042	22.5758761	29.970609	73.4933	83.2892	73	3.4666666667	24.09	7.8037666	3.2174	27.0018332	3.2391	47.8908566	22.5756047	29.9741666	73.4933	27.9414666
