Country	Minute	Hour	Logged CAD Users	Operations in Execution	Active CAD Users	FCS CPU	CAD Connect	CAD Search	CAD Explore	CAD Apply Filter	CAD 3D Search	CAD Select	CAD Validate	CAD Open	CAD Update	Logged VIS Users	Operations in Execution	Active VIS Users	VIS Connect	VIS Search	VIS Explore	VIS Apply Filter	VIS 3D Search	VIS Select	VIS Validate	VIS Open	VIS Update
Australia	915	15.25	44.2	2.7333333333	14.586	0.00%	7.8040666	3.2136666	27.0056856	3.2511333	47.9200566	22.5740666	29.9669	73.4711285	83.3092	73	3.8	24.09	7.8046333	3.2158	27.002193	3.2416	47.89349	22.5747333	29.9613666	73.4711285	27.9452344
Australia	930	15.5	45	2.9333333333	14.85	0.00%	7.8038666	3.2173333	27.0013374	3.2549333	47.8929233	22.5766666	29.9857	73.4948	83.2991333	73	4.4	24.09	7.8138333	3.2190666	27.0016902	3.2418	47.9038233	22.5752666	29.9669413	73.4948	27.9480333
Australia	945	15.75	45.6666666667	2.6	15.07	0.00%	7.8152666	3.214	27.0056665	3.2393333	47.8913757	22.5768666	29.9889142	73.5634666	83.3903875	73	3.7333333333	24.09	7.8075666	3.2179111	27.0065332	3.239	47.89599	22.5751555	30.018562	73.5634666	27.9510709
Australia	960	16	45.4666666667	2.5333333333	15.004	0.00%	7.8072666	3.2376666	27.1048665	3.2408	47.89134	22.575	30.0016333	73.5304	83.3044142	73	4.0666666667	24.09	7.8066333	3.2172333	27.0277999	3.2508	47.9097233	22.57515	29.9766677	73.5304	27.9839586
Australia	975	16.25	59.2666666667	3.8	19.558	0.00%	7.8012857	3.2154285	27.0166379	3.2385238	47.89159	22.5774476	29.9805636	73.48225	83.2970571	73	3.7333333333	24.09	7.8004666	3.21636	27.0012999	3.2401	47.8913233	22.5752533	29.9699333	73.48225	27.9520709
Australia	990	16.5	59	4.5333333333	19.47	0.00%	7.807125	3.2145833	27.0021082	3.239125	47.8908816	22.5739	29.9633086	73.49092	83.27908	73	4.0666666667	24.09	7.8045666	3.21665	27.0046665	3.2384333	47.8908566	22.5750666	29.9652666	73.49092	27.9417
Australia	1005	16.75	58.1333333333	4	19.184	0.00%	7.8008571	3.2128095	27.0074951	3.2398571	47.8933042	22.5758761	29.970609	73.4933	83.2892	73	3.4666666667	24.09	7.8037666	3.2174	27.0018332	3.2391	47.8908566	22.5756047	29.9741666	73.4933	27.9414666
